%YAML 1.1
%TAG !u! tag:unity3d.com,2011:
--- !u!114 &11400000
MonoBehaviour:
  m_ObjectHideFlags: 0
  m_CorrespondingSourceObject: {fileID: 0}
  m_PrefabInstance: {fileID: 0}
  m_PrefabAsset: {fileID: 0}
  m_GameObject: {fileID: 0}
  m_Enabled: 1
  m_EditorHideFlags: 0
  m_Script: {fileID: 11500000, guid: 8b52e0b42db81d24fa014d7993313fcc, type: 3}
  m_Name: SelectionAreaDataSet
  m_EditorClassIdentifier: 
  selectionAreaSet:
  - tutorialId: upHint
    upPosition: {x: 0, y: 2530}
    downPosition: {x: 0, y: -787}
    leftPosition: {x: -3478, y: -789}
    rightPosition: {x: 3809, y: -789}
  - tutorialId: restart
    upPosition: {x: 0, y: 633}
    downPosition: {x: 0, y: -2270}
    leftPosition: {x: -1988, y: -818.38}
    rightPosition: {x: 530, y: -818.38}
  - tutorialId: hint
    upPosition: {x: 0, y: 633}
    downPosition: {x: 0, y: -2270}
    leftPosition: {x: -937, y: -818.38}
    rightPosition: {x: 2000, y: -818.38}
  - tutorialId: hintOpenLetter
    upPosition: {x: 0, y: 2288}
    downPosition: {x: 0, y: -614}
    leftPosition: {x: -1150, y: 837}
    rightPosition: {x: 1150, y: 837}
  - tutorialId: restart_second
    upPosition: {x: 0, y: 1831}
    downPosition: {x: 0, y: -1655}
    leftPosition: {x: -3478, y: 837}
    rightPosition: {x: 3809, y: 837}
